<?xml version="1.0" encoding="utf-8" ?>
<kml xmlns="http://www.opengis.net/kml/2.2">
<Document id="root_doc">
<Schema name="AOI_1" id="AOI_1">
	<SimpleField name="OrderDesc" type="string"></SimpleField>
</Schema>
<Folder><name>AOI_1</name>
  <Placemark>
	<Style><LineStyle><color>ff0000ff</color></LineStyle><PolyStyle><fill>0</fill></PolyStyle></Style>
	<ExtendedData><SchemaData schemaUrl="#AOI_1">
		<SimpleData name="OrderDesc">AOI 1</SimpleData>
	</SchemaData></ExtendedData>
      <Polygon><outerBoundaryIs><LinearRing><coordinates>-94.196777,43.818675 -94.729614,43.357138 -94.432983,42.94436 -93.66394,42.964463 -93.504639,43.22119 -94.119873,43.365126 -93.218994,43.520672 -92.955322,43.719505 -93.334351,43.854336 -93.911133,43.822638 -94.196777,43.818675</coordinates></LinearRing></outerBoundaryIs></Polygon>
  </Placemark>
</Folder>
<Folder><name>AOI_1_fulfilled</name>
  <Placemark>
	<Style><LineStyle><color>ff0000ff</color></LineStyle><PolyStyle><fill>0</fill></PolyStyle></Style>
	<ExtendedData><SchemaData schemaUrl="#AOI_1_fulfilled">
		<SimpleData name="OrderDesc">AOI 1_fulfilled</SimpleData>
	</SchemaData></ExtendedData>
      <Polygon><outerBoundaryIs><LinearRing><coordinates>-93.66394,42.964463 -93.504639,43.22119 -94.119873,43.365126 -93.218994,43.520672 -92.955322,43.719505 -93.334351,43.854336 -93.911133,43.822638 -94.196777,43.818675 -94.2178894186713,43.800568912178 -94.217898,43.79799 -94.217968,43.76491 -94.218043,43.731802 -94.218126,43.698685 -94.21823,43.665555 -94.218292,43.632383 -94.218398,43.599181 -94.21849,43.565951 -94.21856,43.532706 -94.218656,43.49943 -94.218736,43.466128 -94.218825,43.432805 -94.218908,43.399452 -94.218997,43.36607 -94.219071,43.332656 -94.21917,43.299227 -94.219226,43.265765 -94.219309,43.232283 -94.219419,43.198772 -94.219496,43.165229 -94.219543,43.131623 -94.219636,43.098018 -94.219805,43.064434 -94.2198757291656,43.0360917446504 -94.2753675783941,43.0299063646709 -94.275492,43.050756 -94.275498,43.099324 -94.275527,43.147866 -94.275655,43.196376 -94.275679,43.244857 -94.275706,43.29329 -94.275802,43.34169 -94.275919,43.390073 -94.275979,43.438414 -94.276033,43.486724 -94.276101,43.534997 -94.276157,43.583252 -94.276195,43.631486 -94.276246,43.679695 -94.276313,43.727862 -94.2763484968676,43.7503565694525 -94.729614,43.357138 -94.432983,42.94436 -94.1727449807047,42.9517404865126 -94.1726547512701,42.9864249268717 -94.1023396156498,42.9791086770918 -94.102016,42.956791 -94.1019705631728,42.9536454333732 -93.66394,42.964463</coordinates></LinearRing></outerBoundaryIs></Polygon>
  </Placemark>
</Folder>
<Folder><name>AOI_1_unfulfilled</name>
  <Placemark>
	<Style><LineStyle><color>ff0000ff</color></LineStyle><PolyStyle><fill>0</fill></PolyStyle></Style>
	<ExtendedData><SchemaData schemaUrl="#AOI_1_unfulfilled">
		<SimpleData name="OrderDesc">AOI 1_unfulfilled</SimpleData>
	</SchemaData></ExtendedData>
      <MultiGeometry><Polygon><outerBoundaryIs><LinearRing><coordinates>-94.2763475575591,43.7497519401821 -94.276313,43.727862 -94.276246,43.679695 -94.276195,43.631486 -94.276157,43.583252 -94.276101,43.534997 -94.276033,43.486724 -94.275979,43.438414 -94.275919,43.390073 -94.275802,43.34169 -94.275706,43.29329 -94.275679,43.244857 -94.275655,43.196376 -94.275527,43.147866 -94.275498,43.099324 -94.275492,43.050756 -94.2753672030622,43.0298340085385 -94.2198758358259,43.0360465427725 -94.219805,43.064434 -94.219636,43.098018 -94.219543,43.131623 -94.219496,43.165229 -94.219419,43.198772 -94.219309,43.232283 -94.219226,43.265765 -94.21917,43.299227 -94.219071,43.332656 -94.218997,43.36607 -94.218908,43.399452 -94.218825,43.432805 -94.218736,43.466128 -94.218656,43.49943 -94.21856,43.532706 -94.21849,43.565951 -94.218398,43.599181 -94.218292,43.632383 -94.21823,43.665555 -94.218126,43.698685 -94.218043,43.731802 -94.217968,43.76491 -94.217898,43.79799 -94.2178900193934,43.8003871565661 -94.2763475575591,43.7497519401821</coordinates></LinearRing></outerBoundaryIs></Polygon><Polygon><outerBoundaryIs><LinearRing><coordinates>-94.1019614662489,42.9530129958572 -94.102016,42.956791 -94.1023390697043,42.9790620273374 -94.172654831559,42.9863911721515 -94.1727464630421,42.9511626561616 -94.1019614662489,42.9530129958572</coordinates></LinearRing></outerBoundaryIs></Polygon></MultiGeometry>
  </Placemark>
</Folder>
<Schema name="AOI_1_fulfilled" id="AOI_1_fulfilled">
	<SimpleField name="OrderDesc" type="string"></SimpleField>
</Schema>
<Schema name="AOI_1_unfulfilled" id="AOI_1_unfulfilled">
	<SimpleField name="OrderDesc" type="string"></SimpleField>
</Schema>
</Document></kml>
